¿Datos para qué? Intro al mundo de datos con R
…
#install.packages("tidyverse") # instalamos el conjunto de librerías que componen la colección tidyverse
library(tidyverse) # cargamos las funciones para poder utilizarlas

Luego, tenemos que cargar los datos que vamos a utilizar. La función dependerá del tipo de archivo que tengamos que cargar. Los tipos de archivos más comunes son .csv y .xlsx. Los datos están descargados de la plataforma Data CP.

Para un acceso más simple, pueden consultar las fuentes de datos aquí.

CSV
Excel

data <- read_csv("data/encuentro_1/ARG_elecciones.csv")
data

# A tibble: 54,913 × 10
   id        seccion Elecciones Partido Porcentaje Votos Participacion electores
   <chr>     <chr>   <chr>      <chr>        <dbl> <dbl>         <dbl>     <dbl>
 1 BUENOS A… Adolfo… BALLOTAGE… BLANCO        1.19   134          79.2     14171
 2 BUENOS A… Albert… BALLOTAGE… BLANCO        1.6    123          84.2      9147
 3 BUENOS A… Almira… BALLOTAGE… BLANCO        1.37  4738          83.8    412578
 4 BUENOS A… Arreci… BALLOTAGE… BLANCO        1.53   306          84.0     23840
 5 BUENOS A… Avella… BALLOTAGE… BLANCO        1.61  3617          82.5    272641
 6 BUENOS A… Ayacuc… BALLOTAGE… BLANCO        1.53   212          81.2     17022
 7 BUENOS A… Azul, … BALLOTAGE… BLANCO        1.02   452          80.3     55060
 8 BUENOS A… Bahia … BALLOTAGE… BLANCO        1.57  2948          80.4    233442
 9 BUENOS A… Balcar… BALLOTAGE… BLANCO        1.01   312          81.9     37704
10 BUENOS A… Barade… BALLOTAGE… BLANCO        1.03   230          82.1     27119
# ℹ 54,903 more rows
# ℹ 2 more variables: votantes <dbl>, Provincia <chr>

#install.packages("readxl") # en caso de error, instalar y cargar librería readxl 
library(readxl)
data <- read_excel("data/encuentro_1/ARG_elecciones.xlsx")
data

# A tibble: 54,913 × 10
   id        seccion Elecciones Partido Porcentaje Votos Participacion electores
   <chr>     <chr>   <chr>      <chr>        <dbl> <dbl>         <dbl>     <dbl>
 1 BUENOS A… Adolfo… BALLOTAGE… BLANCO        1.19   134          79.2     14171
 2 BUENOS A… Albert… BALLOTAGE… BLANCO        1.6    123          84.2      9147
 3 BUENOS A… Almira… BALLOTAGE… BLANCO        1.37  4738          83.8    412578
 4 BUENOS A… Arreci… BALLOTAGE… BLANCO        1.53   306          84.0     23840
 5 BUENOS A… Avella… BALLOTAGE… BLANCO        1.61  3617          82.5    272641
 6 BUENOS A… Ayacuc… BALLOTAGE… BLANCO        1.53   212          81.2     17022
 7 BUENOS A… Azul, … BALLOTAGE… BLANCO        1.02   452          80.3     55060
 8 BUENOS A… Bahia … BALLOTAGE… BLANCO        1.57  2948          80.4    233442
 9 BUENOS A… Balcar… BALLOTAGE… BLANCO        1.01   312          81.9     37704
10 BUENOS A… Barade… BALLOTAGE… BLANCO        1.03   230          82.1     27119
# ℹ 54,903 more rows
# ℹ 2 more variables: votantes <dbl>, Provincia <chr>
…
