¿Datos para qué? Intro al mundo de datos con R
…
[1] 3

Carguemos nuestra base de datos para arrancar.

2.4. Procesar resultados electorales

Carguemos sólo 6000 filas, sabiendo que es un dataset muy grande y que quizás se demore mucho cargar toda la base de primera. Veamos una parte para entender la estructura.

ruta <- "data/encuentro_2/2023_Generales/ResultadosElectorales_2023.csv"
data <- read_csv(ruta, n_max=6000) # cargamos sólo 6000 filas
data

# A tibble: 6,000 × 23
     año eleccion_tipo recuento_tipo padron_tipo distrito_id distrito_nombre    
   <dbl> <chr>         <chr>         <chr>             <dbl> <chr>              
 1  2023 GENERAL       PROVISORIO    NORMAL                1 Ciudad Autónoma de…
 2  2023 GENERAL       PROVISORIO    NORMAL                1 Ciudad Autónoma de…
 3  2023 GENERAL       PROVISORIO    NORMAL                1 Ciudad Autónoma de…
 4  2023 GENERAL       PROVISORIO    NORMAL                1 Ciudad Autónoma de…
 5  2023 GENERAL       PROVISORIO    NORMAL                1 Ciudad Autónoma de…
 6  2023 GENERAL       PROVISORIO    NORMAL                1 Ciudad Autónoma de…
 7  2023 GENERAL       PROVISORIO    NORMAL                1 Ciudad Autónoma de…
 8  2023 GENERAL       PROVISORIO    NORMAL                1 Ciudad Autónoma de…
 9  2023 GENERAL       PROVISORIO    NORMAL                1 Ciudad Autónoma de…
10  2023 GENERAL       PROVISORIO    NORMAL                1 Ciudad Autónoma de…
# ℹ 5,990 more rows
# ℹ 17 more variables: seccionprovincial_id <dbl>,
#   seccionprovincial_nombre <chr>, seccion_id <dbl>, seccion_nombre <chr>,
#   circuito_id <chr>, circuito_nombre <chr>, mesa_id <dbl>, mesa_tipo <chr>,
#   mesa_electores <dbl>, cargo_id <dbl>, cargo_nombre <chr>,
#   agrupacion_id <dbl>, agrupacion_nombre <chr>, lista_numero <dbl>,
#   lista_nombre <lgl>, votos_tipo <chr>, votos_cantidad <dbl>
…
Puntos interesantes hasta este punto: hay más de un millón de filas; cada una representa un tipo de voto en una mesa en particular; cada nivel de geográfico (distrito, sección, circuito), el cargo y la agrupación tiene id y nombre; al menos 8 columnas tienen un sólo valor, por lo que no nos sirven para esta base de datos.

Para seleccionar filas y columnas vamos a utilizar las funciones filter() y select(), dos estrellas de Tidyverse.

# filter recibe un dataframe y una condición
data %>% 
  filter(distrito_nombre == "Buenos Aires") # filtramos sólo los casos de Buenos Aires

# A tibble: 380,740 × 23
     año eleccion_tipo recuento_tipo padron_tipo distrito_id distrito_nombre
   <dbl> <chr>         <chr>         <chr>             <dbl> <chr>          
 1  2023 GENERAL       PROVISORIO    NORMAL                2 Buenos Aires   
 2  2023 GENERAL       PROVISORIO    NORMAL                2 Buenos Aires   
 3  2023 GENERAL       PROVISORIO    NORMAL                2 Buenos Aires   
 4  2023 GENERAL       PROVISORIO    NORMAL                2 Buenos Aires   
 5  2023 GENERAL       PROVISORIO    NORMAL                2 Buenos Aires   
 6  2023 GENERAL       PROVISORIO    NORMAL                2 Buenos Aires   
 7  2023 GENERAL       PROVISORIO    NORMAL                2 Buenos Aires   
 8  2023 GENERAL       PROVISORIO    NORMAL                2 Buenos Aires   
 9  2023 GENERAL       PROVISORIO    NORMAL                2 Buenos Aires   
10  2023 GENERAL       PROVISORIO    NORMAL                2 Buenos Aires   
# ℹ 380,730 more rows
# ℹ 17 more variables: seccionprovincial_id <dbl>,
#   seccionprovincial_nombre <chr>, seccion_id <dbl>, seccion_nombre <chr>,
#   circuito_id <chr>, circuito_nombre <chr>, mesa_id <dbl>, mesa_tipo <chr>,
#   mesa_electores <dbl>, cargo_id <dbl>, cargo_nombre <chr>,
#   agrupacion_id <dbl>, agrupacion_nombre <chr>, lista_numero <dbl>,
#   lista_nombre <lgl>, votos_tipo <chr>, votos_cantidad <dbl>

# podríamos querer filtrar por más de una condición
data %>% 
  filter(distrito_nombre == "Buenos Aires" & votos_cantidad > 200) # ¿por qué haríamos eso? sólo para mostrar cómo funcionan las condiciones

# A tibble: 54 × 23
     año eleccion_tipo recuento_tipo padron_tipo distrito_id distrito_nombre
   <dbl> <chr>         <chr>         <chr>             <dbl> <chr>          
 1  2023 GENERAL       PROVISORIO    NORMAL                2 Buenos Aires   
 2  2023 GENERAL       PROVISORIO    NORMAL                2 Buenos Aires   
 3  2023 GENERAL       PROVISORIO    NORMAL                2 Buenos Aires   
 4  2023 GENERAL       PROVISORIO    NORMAL                2 Buenos Aires   
 5  2023 GENERAL       PROVISORIO    NORMAL                2 Buenos Aires   
 6  2023 GENERAL       PROVISORIO    NORMAL                2 Buenos Aires   
 7  2023 GENERAL       PROVISORIO    NORMAL                2 Buenos Aires   
 8  2023 GENERAL       PROVISORIO    NORMAL                2 Buenos Aires   
 9  2023 GENERAL       PROVISORIO    NORMAL                2 Buenos Aires   
10  2023 GENERAL       PROVISORIO    NORMAL                2 Buenos Aires   
# ℹ 44 more rows
# ℹ 17 more variables: seccionprovincial_id <dbl>,
#   seccionprovincial_nombre <chr>, seccion_id <dbl>, seccion_nombre <chr>,
#   circuito_id <chr>, circuito_nombre <chr>, mesa_id <dbl>, mesa_tipo <chr>,
#   mesa_electores <dbl>, cargo_id <dbl>, cargo_nombre <chr>,
#   agrupacion_id <dbl>, agrupacion_nombre <chr>, lista_numero <dbl>,
#   lista_nombre <lgl>, votos_tipo <chr>, votos_cantidad <dbl>

# podemos jugar con otros operadores lógicos
data %>% 
  filter(distrito_nombre=="Buenos Aires" | votos_tipo != "POSITIVO")

# A tibble: 712,970 × 23
     año eleccion_tipo recuento_tipo padron_tipo distrito_id distrito_nombre    
   <dbl> <chr>         <chr>         <chr>             <dbl> <chr>              
 1  2023 GENERAL       PROVISORIO    NORMAL                1 Ciudad Autónoma de…
 2  2023 GENERAL       PROVISORIO    NORMAL                1 Ciudad Autónoma de…
 3  2023 GENERAL       PROVISORIO    NORMAL                1 Ciudad Autónoma de…
 4  2023 GENERAL       PROVISORIO    NORMAL                1 Ciudad Autónoma de…
 5  2023 GENERAL       PROVISORIO    NORMAL                1 Ciudad Autónoma de…
 6  2023 GENERAL       PROVISORIO    NORMAL                1 Ciudad Autónoma de…
 7  2023 GENERAL       PROVISORIO    NORMAL                1 Ciudad Autónoma de…
 8  2023 GENERAL       PROVISORIO    NORMAL                1 Ciudad Autónoma de…
 9  2023 GENERAL       PROVISORIO    NORMAL                1 Ciudad Autónoma de…
10  2023 GENERAL       PROVISORIO    NORMAL                1 Ciudad Autónoma de…
# ℹ 712,960 more rows
# ℹ 17 more variables: seccionprovincial_id <dbl>,
#   seccionprovincial_nombre <chr>, seccion_id <dbl>, seccion_nombre <chr>,
#   circuito_id <chr>, circuito_nombre <chr>, mesa_id <dbl>, mesa_tipo <chr>,
#   mesa_electores <dbl>, cargo_id <dbl>, cargo_nombre <chr>,
#   agrupacion_id <dbl>, agrupacion_nombre <chr>, lista_numero <dbl>,
#   lista_nombre <lgl>, votos_tipo <chr>, votos_cantidad <dbl>

data %>% 
  filter(distrito_nombre %in% c("Buenos Aires","Ciudad Autónoma de Buenos Aires"))

# A tibble: 454,000 × 23
     año eleccion_tipo recuento_tipo padron_tipo distrito_id distrito_nombre    
   <dbl> <chr>         <chr>         <chr>             <dbl> <chr>              
 1  2023 GENERAL       PROVISORIO    NORMAL                1 Ciudad Autónoma de…
 2  2023 GENERAL       PROVISORIO    NORMAL                1 Ciudad Autónoma de…
 3  2023 GENERAL       PROVISORIO    NORMAL                1 Ciudad Autónoma de…
 4  2023 GENERAL       PROVISORIO    NORMAL                1 Ciudad Autónoma de…
 5  2023 GENERAL       PROVISORIO    NORMAL                1 Ciudad Autónoma de…
 6  2023 GENERAL       PROVISORIO    NORMAL                1 Ciudad Autónoma de…
 7  2023 GENERAL       PROVISORIO    NORMAL                1 Ciudad Autónoma de…
 8  2023 GENERAL       PROVISORIO    NORMAL                1 Ciudad Autónoma de…
 9  2023 GENERAL       PROVISORIO    NORMAL                1 Ciudad Autónoma de…
10  2023 GENERAL       PROVISORIO    NORMAL                1 Ciudad Autónoma de…
# ℹ 453,990 more rows
# ℹ 17 more variables: seccionprovincial_id <dbl>,
#   seccionprovincial_nombre <chr>, seccion_id <dbl>, seccion_nombre <chr>,
#   circuito_id <chr>, circuito_nombre <chr>, mesa_id <dbl>, mesa_tipo <chr>,
#   mesa_electores <dbl>, cargo_id <dbl>, cargo_nombre <chr>,
#   agrupacion_id <dbl>, agrupacion_nombre <chr>, lista_numero <dbl>,
#   lista_nombre <lgl>, votos_tipo <chr>, votos_cantidad <dbl>

Para seleccionar, select() nos da una diversidad muy interesante e intuitiva de opciones.

# podemos querer seleccionar una columna específica
data %>% 
  select(distrito_id)

# A tibble: 1,045,200 × 1
   distrito_id
         <dbl>
 1           1
 2           1
 3           1
 4           1
 5           1
 6           1
 7           1
 8           1
 9           1
10           1
# ℹ 1,045,190 more rows

# o varias columnas
data %>% 
  select(distrito_id, distrito_nombre)

# A tibble: 1,045,200 × 2
   distrito_id distrito_nombre                
         <dbl> <chr>                          
 1           1 Ciudad Autónoma de Buenos Aires
 2           1 Ciudad Autónoma de Buenos Aires
 3           1 Ciudad Autónoma de Buenos Aires
 4           1 Ciudad Autónoma de Buenos Aires
 5           1 Ciudad Autónoma de Buenos Aires
 6           1 Ciudad Autónoma de Buenos Aires
 7           1 Ciudad Autónoma de Buenos Aires
 8           1 Ciudad Autónoma de Buenos Aires
 9           1 Ciudad Autónoma de Buenos Aires
10           1 Ciudad Autónoma de Buenos Aires
# ℹ 1,045,190 more rows

# si lo pasamos como vector, hay que incluir las comillas
data %>% 
  select(c("distrito_id", "distrito_nombre"))

# A tibble: 1,045,200 × 2
   distrito_id distrito_nombre                
         <dbl> <chr>                          
 1           1 Ciudad Autónoma de Buenos Aires
 2           1 Ciudad Autónoma de Buenos Aires
 3           1 Ciudad Autónoma de Buenos Aires
 4           1 Ciudad Autónoma de Buenos Aires
 5           1 Ciudad Autónoma de Buenos Aires
 6           1 Ciudad Autónoma de Buenos Aires
 7           1 Ciudad Autónoma de Buenos Aires
 8           1 Ciudad Autónoma de Buenos Aires
 9           1 Ciudad Autónoma de Buenos Aires
10           1 Ciudad Autónoma de Buenos Aires
# ℹ 1,045,190 more rows

# podemos querer filtrar un subconjunto continuo de columnas
data %>% 
  select(distrito_id:lista_nombre)

# A tibble: 1,045,200 × 17
   distrito_id distrito_nombre       seccionprovincial_id seccionprovincial_no…¹
         <dbl> <chr>                                <dbl> <chr>                 
 1           1 Ciudad Autónoma de B…                    0 <NA>                  
 2           1 Ciudad Autónoma de B…                    0 <NA>                  
 3           1 Ciudad Autónoma de B…                    0 <NA>                  
 4           1 Ciudad Autónoma de B…                    0 <NA>                  
 5           1 Ciudad Autónoma de B…                    0 <NA>                  
 6           1 Ciudad Autónoma de B…                    0 <NA>                  
 7           1 Ciudad Autónoma de B…                    0 <NA>                  
 8           1 Ciudad Autónoma de B…                    0 <NA>                  
 9           1 Ciudad Autónoma de B…                    0 <NA>                  
10           1 Ciudad Autónoma de B…                    0 <NA>                  
# ℹ 1,045,190 more rows
# ℹ abbreviated name: ¹​seccionprovincial_nombre
# ℹ 13 more variables: seccion_id <dbl>, seccion_nombre <chr>,
#   circuito_id <chr>, circuito_nombre <chr>, mesa_id <dbl>, mesa_tipo <chr>,
#   mesa_electores <dbl>, cargo_id <dbl>, cargo_nombre <chr>,
#   agrupacion_id <dbl>, agrupacion_nombre <chr>, lista_numero <dbl>,
#   lista_nombre <lgl>

# o podemos querer negar una condición
data %>% 
  select(!distrito_id:lista_nombre)

# A tibble: 1,045,200 × 6
     año eleccion_tipo recuento_tipo padron_tipo votos_tipo votos_cantidad
   <dbl> <chr>         <chr>         <chr>       <chr>               <dbl>
 1  2023 GENERAL       PROVISORIO    NORMAL      NULO                    0
 2  2023 GENERAL       PROVISORIO    NORMAL      IMPUGNADO               0
 3  2023 GENERAL       PROVISORIO    NORMAL      RECURRIDO               0
 4  2023 GENERAL       PROVISORIO    NORMAL      COMANDO                 0
 5  2023 GENERAL       PROVISORIO    NORMAL      POSITIVO               95
 6  2023 GENERAL       PROVISORIO    NORMAL      POSITIVO               59
 7  2023 GENERAL       PROVISORIO    NORMAL      POSITIVO               57
 8  2023 GENERAL       PROVISORIO    NORMAL      POSITIVO                9
 9  2023 GENERAL       PROVISORIO    NORMAL      POSITIVO                4
10  2023 GENERAL       PROVISORIO    NORMAL      EN BLANCO               4
# ℹ 1,045,190 more rows

# podemos filtrar según el nombre de la columna
data %>% 
  select(ends_with("nombre"))

# A tibble: 1,045,200 × 7
   distrito_nombre         seccionprovincial_no…¹ seccion_nombre circuito_nombre
   <chr>                   <chr>                  <chr>          <chr>          
 1 Ciudad Autónoma de Bue… <NA>                   Comuna 01      00018          
 2 Ciudad Autónoma de Bue… <NA>                   Comuna 01      00018          
 3 Ciudad Autónoma de Bue… <NA>                   Comuna 01      00018          
 4 Ciudad Autónoma de Bue… <NA>                   Comuna 01      00018          
 5 Ciudad Autónoma de Bue… <NA>                   Comuna 01      00018          
 6 Ciudad Autónoma de Bue… <NA>                   Comuna 01      00018          
 7 Ciudad Autónoma de Bue… <NA>                   Comuna 01      00018          
 8 Ciudad Autónoma de Bue… <NA>                   Comuna 01      00018          
 9 Ciudad Autónoma de Bue… <NA>                   Comuna 01      00018          
10 Ciudad Autónoma de Bue… <NA>                   Comuna 01      00018          
# ℹ 1,045,190 more rows
# ℹ abbreviated name: ¹​seccionprovincial_nombre
# ℹ 3 more variables: cargo_nombre <chr>, agrupacion_nombre <chr>,
#   lista_nombre <lgl>

# y agregar condiciones
data %>% 
  select(starts_with("distrito") | starts_with("seccion"))

# A tibble: 1,045,200 × 6
   distrito_id distrito_nombre       seccionprovincial_id seccionprovincial_no…¹
         <dbl> <chr>                                <dbl> <chr>                 
 1           1 Ciudad Autónoma de B…                    0 <NA>                  
 2           1 Ciudad Autónoma de B…                    0 <NA>                  
 3           1 Ciudad Autónoma de B…                    0 <NA>                  
 4           1 Ciudad Autónoma de B…                    0 <NA>                  
 5           1 Ciudad Autónoma de B…                    0 <NA>                  
 6           1 Ciudad Autónoma de B…                    0 <NA>                  
 7           1 Ciudad Autónoma de B…                    0 <NA>                  
 8           1 Ciudad Autónoma de B…                    0 <NA>                  
 9           1 Ciudad Autónoma de B…                    0 <NA>                  
10           1 Ciudad Autónoma de B…                    0 <NA>                  
# ℹ 1,045,190 more rows
# ℹ abbreviated name: ¹​seccionprovincial_nombre
# ℹ 2 more variables: seccion_id <dbl>, seccion_nombre <chr>
…
